…
### 3. combine the data

``` r
prcp_16_data = mutate(prcp_16_data, month = month.name) # change month 
prcp_17_data = mutate(prcp_17_data, month = month.name[month]) # change month
prcp_comb = full_join(prcp_16_data, prcp_17_data)
```

    ## Joining, by = c("month", "total", "year")

``` r
prcp_comb
```

    ## # A tibble: 24 x 3
    ##    month     total  year
    ##    <chr>     <dbl> <dbl>
    ##  1 January    3.23  2016
    ##  2 February   5.32  2016
    ##  3 March      2.24  2016
    ##  4 April      1.78  2016
    ##  5 May        5.19  2016
    ##  6 June       3.2   2016
    ##  7 July       6.09  2016
    ##  8 August     3.96  2016
    ##  9 September  4.53  2016
    ## 10 October    0.62  2016
    ## # ... with 14 more rows
…
